ISD/Part_1/simulation/qsim/GateDemo.msim.vcd
$comment
	File created using the following command:
		vcd file GateDemo.msim.vcd -direction
$end
$date
	Wed Nov 17 16:01:49 2021
$end
$version
	ModelSim Version 2020.1
$end
$timescale
	1ps
$end

$scope module GateDemo_vlg_vec_tst $end
$var reg 1 ! inPort0 $end
$var reg 1 " inPort1 $end
$var wire 1 # outPort $end

$scope module i1 $end
$var wire 1 $ gnd $end
$var wire 1 % vcc $end
$var wire 1 & unknown $end
$var tri1 1 ' devclrn $end
$var tri1 1 ( devpor $end
$var tri1 1 ) devoe $end
$var wire 1 * outPort~output_o $end
$var wire 1 + inPort0~input_o $end
$var wire 1 , inPort1~input_o $end
$var wire 1 - inst~combout $end
$upscope $end
$upscope $end
$enddefinitions $end
#0
$dumpvars
1!
0"
1#
0$
1%
x&
1'
1(
1)
1*
1+
0,
0-
$end
#60000
1"
1,
1-
0*
0#
#180000
0"
0,
0-
1*
1#
#280000
1"
1,
1-
0*
0#
#320000
0!
0+
0-
1*
1#
#440000
0"
0,
#540000
1"
1,
#550000
1!
1+
1-
0*
0#
#560000
0"
0,
0-
1*
1#
#570000
0!
0+
#600000
1!
1+
#610000
0!
0+
#620000
1!
1+
#630000
1"
0!
1,
0+
#640000
1!
1+
1-
0*
0#
#650000
0!
0+
0-
1*
1#
#660000
0"
0,
#670000
1!
1+
#680000
1"
0!
1,
0+
#700000
0"
1!
0,
1+
#720000
0!
0+
#730000
1"
1!
1,
1+
1-
0*
0#
#740000
0"
0!
0,
0+
0-
1*
1#
#750000
1"
1,
#760000
1!
1+
1-
0*
0#
#770000
0"
0!
0,
0+
0-
1*
1#
#780000
1!
1+
#790000
1"
1,
1-
0*
0#
#800000
0"
0,
0-
1*
1#
#830000
0!
0+
#860000
1!
1+
#870000
0!
0+
#880000
1!
1+
#890000
0!
0+
