LSD/projeto/WashingMachine_v3/simulation/qsim/WashingMachine_v3.msim.vcd
$comment
	File created using the following command:
		vcd file WashingMachine_v3.msim.vcd -direction
$end
$date
	Mon Jun 20 22:41:06 2022
$end
$version
	ModelSim Version 2020.1
$end
$timescale
	1ps
$end

$scope module washingmachine_v3_vhd_vec_tst $end
$var wire 1 ! CLOCK_50 $end
$var wire 1 " HEX0 [6] $end
$var wire 1 # HEX0 [5] $end
$var wire 1 $ HEX0 [4] $end
$var wire 1 % HEX0 [3] $end
$var wire 1 & HEX0 [2] $end
$var wire 1 ' HEX0 [1] $end
$var wire 1 ( HEX0 [0] $end
$var wire 1 ) HEX1 [6] $end
$var wire 1 * HEX1 [5] $end
$var wire 1 + HEX1 [4] $end
$var wire 1 , HEX1 [3] $end
$var wire 1 - HEX1 [2] $end
$var wire 1 . HEX1 [1] $end
$var wire 1 / HEX1 [0] $end
$var wire 1 0 HEX2 [6] $end
$var wire 1 1 HEX2 [5] $end
$var wire 1 2 HEX2 [4] $end
$var wire 1 3 HEX2 [3] $end
$var wire 1 4 HEX2 [2] $end
$var wire 1 5 HEX2 [1] $end
$var wire 1 6 HEX2 [0] $end
$var wire 1 7 HEX3 [6] $end
$var wire 1 8 HEX3 [5] $end
$var wire 1 9 HEX3 [4] $end
$var wire 1 : HEX3 [3] $end
$var wire 1 ; HEX3 [2] $end
$var wire 1 < HEX3 [1] $end
$var wire 1 = HEX3 [0] $end
$var wire 1 > HEX4 [6] $end
$var wire 1 ? HEX4 [5] $end
$var wire 1 @ HEX4 [4] $end
$var wire 1 A HEX4 [3] $end
$var wire 1 B HEX4 [2] $end
$var wire 1 C HEX4 [1] $end
$var wire 1 D HEX4 [0] $end
$var wire 1 E KEY [0] $end
$var wire 1 F LEDG [3] $end
$var wire 1 G LEDG [2] $end
$var wire 1 H LEDG [1] $end
$var wire 1 I LEDG [0] $end
$var wire 1 J LEDR [0] $end
$var wire 1 K SW [3] $end
$var wire 1 L SW [2] $end
$var wire 1 M SW [1] $end
$var wire 1 N SW [0] $end

$scope module i1 $end
$var wire 1 O gnd $end
$var wire 1 P vcc $end
$var wire 1 Q unknown $end
$var wire 1 R devoe $end
$var wire 1 S devclrn $end
$var wire 1 T devpor $end
$var wire 1 U ww_devoe $end
$var wire 1 V ww_devclrn $end
$var wire 1 W ww_devpor $end
$var wire 1 X ww_CLOCK_50 $end
$var wire 1 Y ww_SW [3] $end
$var wire 1 Z ww_SW [2] $end
$var wire 1 [ ww_SW [1] $end
$var wire 1 \ ww_SW [0] $end
$var wire 1 ] ww_KEY [0] $end
$var wire 1 ^ ww_LEDR [0] $end
$var wire 1 _ ww_LEDG [3] $end
$var wire 1 ` ww_LEDG [2] $end
$var wire 1 a ww_LEDG [1] $end
$var wire 1 b ww_LEDG [0] $end
$var wire 1 c ww_HEX0 [6] $end
$var wire 1 d ww_HEX0 [5] $end
$var wire 1 e ww_HEX0 [4] $end
$var wire 1 f ww_HEX0 [3] $end
$var wire 1 g ww_HEX0 [2] $end
$var wire 1 h ww_HEX0 [1] $end
$var wire 1 i ww_HEX0 [0] $end
$var wire 1 j ww_HEX1 [6] $end
$var wire 1 k ww_HEX1 [5] $end
$var wire 1 l ww_HEX1 [4] $end
$var wire 1 m ww_HEX1 [3] $end
$var wire 1 n ww_HEX1 [2] $end
$var wire 1 o ww_HEX1 [1] $end
$var wire 1 p ww_HEX1 [0] $end
$var wire 1 q ww_HEX2 [6] $end
$var wire 1 r ww_HEX2 [5] $end
$var wire 1 s ww_HEX2 [4] $end
$var wire 1 t ww_HEX2 [3] $end
$var wire 1 u ww_HEX2 [2] $end
$var wire 1 v ww_HEX2 [1] $end
$var wire 1 w ww_HEX2 [0] $end
$var wire 1 x ww_HEX3 [6] $end
$var wire 1 y ww_HEX3 [5] $end
$var wire 1 z ww_HEX3 [4] $end
$var wire 1 { ww_HEX3 [3] $end
$var wire 1 | ww_HEX3 [2] $end
$var wire 1 } ww_HEX3 [1] $end
$var wire 1 ~ ww_HEX3 [0] $end
$var wire 1 !! ww_HEX4 [6] $end
$var wire 1 "! ww_HEX4 [5] $end
$var wire 1 #! ww_HEX4 [4] $end
$var wire 1 $! ww_HEX4 [3] $end
$var wire 1 %! ww_HEX4 [2] $end
$var wire 1 &! ww_HEX4 [1] $end
$var wire 1 '! ww_HEX4 [0] $end
$var wire 1 (! \LEDR[0]~output_o\ $end
$var wire 1 )! \LEDG[0]~output_o\ $end
$var wire 1 *! \LEDG[1]~output_o\ $end
$var wire 1 +! \LEDG[2]~output_o\ $end
$var wire 1 ,! \LEDG[3]~output_o\ $end
$var wire 1 -! \HEX0[0]~output_o\ $end
$var wire 1 .! \HEX0[1]~output_o\ $end
$var wire 1 /! \HEX0[2]~output_o\ $end
$var wire 1 0! \HEX0[3]~output_o\ $end
$var wire 1 1! \HEX0[4]~output_o\ $end
$var wire 1 2! \HEX0[5]~output_o\ $end
$var wire 1 3! \HEX0[6]~output_o\ $end
$var wire 1 4! \HEX1[0]~output_o\ $end
$var wire 1 5! \HEX1[1]~output_o\ $end
$var wire 1 6! \HEX1[2]~output_o\ $end
$var wire 1 7! \HEX1[3]~output_o\ $end
$var wire 1 8! \HEX1[4]~output_o\ $end
$var wire 1 9! \HEX1[5]~output_o\ $end
$var wire 1 :! \HEX1[6]~output_o\ $end
$var wire 1 ;! \HEX2[0]~output_o\ $end
$var wire 1 <! \HEX2[1]~output_o\ $end
$var wire 1 =! \HEX2[2]~output_o\ $end
$var wire 1 >! \HEX2[3]~output_o\ $end
$var wire 1 ?! \HEX2[4]~output_o\ $end
$var wire 1 @! \HEX2[5]~output_o\ $end
$var wire 1 A! \HEX2[6]~output_o\ $end
$var wire 1 B! \HEX3[0]~output_o\ $end
$var wire 1 C! \HEX3[1]~output_o\ $end
$var wire 1 D! \HEX3[2]~output_o\ $end
$var wire 1 E! \HEX3[3]~output_o\ $end
$var wire 1 F! \HEX3[4]~output_o\ $end
$var wire 1 G! \HEX3[5]~output_o\ $end
$var wire 1 H! \HEX3[6]~output_o\ $end
$var wire 1 I! \HEX4[0]~output_o\ $end
$var wire 1 J! \HEX4[1]~output_o\ $end
$var wire 1 K! \HEX4[2]~output_o\ $end
$var wire 1 L! \HEX4[3]~output_o\ $end
$var wire 1 M! \HEX4[4]~output_o\ $end
$var wire 1 N! \HEX4[5]~output_o\ $end
$var wire 1 O! \HEX4[6]~output_o\ $end
$var wire 1 P! \CLOCK_50~input_o\ $end
$var wire 1 Q! \SW[3]~input_o\ $end
$var wire 1 R! \SW[0]~input_o\ $end
$var wire 1 S! \reg|p_out~1_combout\ $end
$var wire 1 T! \SW[1]~input_o\ $end
$var wire 1 U! \reg|p_out~0_combout\ $end
$var wire 1 V! \display_decoder|Equal1~0_combout\ $end
$var wire 1 W! \top_level|Selector2~0_combout\ $end
$var wire 1 X! \top_level|Selector1~0_combout\ $end
$var wire 1 Y! \top_level|Selector19~0_combout\ $end
$var wire 1 Z! \top_level|Selector19~1_combout\ $end
$var wire 1 [! \top_level|Selector13~0_combout\ $end
$var wire 1 \! \top_level|Selector13~1_combout\ $end
$var wire 1 ]! \top_level|Selector13~2_combout\ $end
$var wire 1 ^! \KEY[0]~input_o\ $end
$var wire 1 _! \reg|st_out~0_combout\ $end
$var wire 1 `! \reg|st_out~q\ $end
$var wire 1 a! \SW[2]~input_o\ $end
$var wire 1 b! \reg|lid_out~0_combout\ $end
$var wire 1 c! \reg|lid_out~q\ $end
$var wire 1 d! \top_level|Selector17~3_combout\ $end
$var wire 1 e! \timer_aux|Add0~6_combout\ $end
$var wire 1 f! \top_level|Selector16~0_combout\ $end
$var wire 1 g! \top_level|s_nextState.Tsoak_335~combout\ $end
$var wire 1 h! \reg|reset_out~q\ $end
$var wire 1 i! \top_level|s_currentState~9_combout\ $end
$var wire 1 j! \top_level|s_currentState.Tsoak~q\ $end
$var wire 1 k! \top_level|Selector11~0_combout\ $end
$var wire 1 l! \top_level|s_nextState.Trinse_316~combout\ $end
$var wire 1 m! \top_level|s_currentState~10_combout\ $end
$var wire 1 n! \top_level|s_currentState.Trinse~q\ $end
$var wire 1 o! \timer_aux|Add0~0_combout\ $end
$var wire 1 p! \top_level|Selector7~0_combout\ $end
$var wire 1 q! \top_level|Selector7~1_combout\ $end
$var wire 1 r! \top_level|Selector7~2_combout\ $end
$var wire 1 s! \top_level|s_nextState.Tspin_278~combout\ $end
$var wire 1 t! \top_level|s_currentState~11_combout\ $end
$var wire 1 u! \top_level|s_currentState.Tspin~q\ $end
$var wire 1 v! \top_level|s_stateChanged~0_combout\ $end
$var wire 1 w! \top_level|s_stateChanged~1_combout\ $end
$var wire 1 x! \top_level|s_stateChanged~2_combout\ $end
$var wire 1 y! \top_level|s_stateChanged~3_combout\ $end
$var wire 1 z! \top_level|s_stateChanged~q\ $end
$var wire 1 {! \top_level|Selector17~4_combout\ $end
$var wire 1 |! \top_level|Selector17~2_combout\ $end
$var wire 1 }! \top_level|Selector18~0_combout\ $end
$var wire 1 ~! \top_level|s_timeEnable~combout\ $end
$var wire 1 !" \timer_aux|s_counter~6_combout\ $end
$var wire 1 "" \timer_aux|s_counter~7_combout\ $end
$var wire 1 #" \timer_aux|Add0~1_combout\ $end
$var wire 1 $" \timer_aux|Add0~2_combout\ $end
$var wire 1 %" \timer_aux|Add0~3_combout\ $end
$var wire 1 &" \timer_aux|s_counter[1]~0_combout\ $end
$var wire 1 '" \timer_aux|s_counter[1]~1_combout\ $end
$var wire 1 (" \timer_aux|s_counter[1]~2_combout\ $end
$var wire 1 )" \timer_aux|Add0~4_combout\ $end
$var wire 1 *" \timer_aux|Add0~5_combout\ $end
$var wire 1 +" \timer_aux|s_counter[2]~8_combout\ $end
$var wire 1 ," \timer_aux|s_counter[2]~9_combout\ $end
$var wire 1 -" \timer_aux|s_counter[3]~3_combout\ $end
$var wire 1 ." \timer_aux|s_counter[3]~4_combout\ $end
$var wire 1 /" \timer_aux|s_counter[3]~5_combout\ $end
$var wire 1 0" \timer_aux|Equal0~3_combout\ $end
$var wire 1 1" \timer_aux|s_cntZero~0_combout\ $end
$var wire 1 2" \timer_aux|s_cntZero~q\ $end
$var wire 1 3" \top_level|Selector9~0_combout\ $end
$var wire 1 4" \top_level|s_nextState.Trm_water_297~combout\ $end
$var wire 1 5" \top_level|s_currentState~12_combout\ $end
$var wire 1 6" \top_level|s_currentState.Trm_water~q\ $end
$var wire 1 7" \top_level|Selector0~0_combout\ $end
$var wire 1 8" \top_level|Selector0~1_combout\ $end
$var wire 1 9" \top_level|s_nextState.Tfinished_259~combout\ $end
$var wire 1 :" \top_level|s_currentState~13_combout\ $end
$var wire 1 ;" \top_level|s_currentState.Tfinished~q\ $end
$var wire 1 <" \top_level|Selector15~0_combout\ $end
$var wire 1 =" \top_level|Selector15~1_combout\ $end
$var wire 1 >" \top_level|s_nextState.Tidle_354~combout\ $end
$var wire 1 ?" \top_level|s_currentState~8_combout\ $end
$var wire 1 @" \top_level|s_currentState.Tidle~q\ $end
$var wire 1 A" \display_decoder|Equal1~1_combout\ $end
$var wire 1 B" \display_decoder|time0[0]~0_combout\ $end
$var wire 1 C" \display_decoder|time0[1]~1_combout\ $end
$var wire 1 D" \timer_aux|Equal0~0_combout\ $end
$var wire 1 E" \display_decoder|time0[3]~2_combout\ $end
$var wire 1 F" \display_decoder|time0[4]~3_combout\ $end
$var wire 1 G" \display_decoder|time0[5]~4_combout\ $end
$var wire 1 H" \display_decoder|time0[6]~5_combout\ $end
$var wire 1 I" \timer_aux|Equal0~1_combout\ $end
$var wire 1 J" \timer_aux|Equal0~2_combout\ $end
$var wire 1 K" \display_decoder|time1[6]~0_combout\ $end
$var wire 1 L" \timer_aux|s_counter\ [3] $end
$var wire 1 M" \timer_aux|s_counter\ [2] $end
$var wire 1 N" \timer_aux|s_counter\ [1] $end
$var wire 1 O" \timer_aux|s_counter\ [0] $end
$var wire 1 P" \top_level|s_mode\ [1] $end
$var wire 1 Q" \top_level|s_mode\ [0] $end
$var wire 1 R" \reg|p_out\ [1] $end
$var wire 1 S" \reg|p_out\ [0] $end
$var wire 1 T" \top_level|s_nextStateAUX\ [1] $end
$var wire 1 U" \top_level|s_nextStateAUX\ [0] $end
$var wire 1 V" \ALT_INV_CLOCK_50~input_o\ $end
$var wire 1 W" \top_level|ALT_INV_s_mode\ [1] $end
$var wire 1 X" \top_level|ALT_INV_s_mode\ [0] $end
$var wire 1 Y" \display_decoder|ALT_INV_time1[6]~0_combout\ $end
$var wire 1 Z" \display_decoder|ALT_INV_time0[6]~5_combout\ $end
$var wire 1 [" \display_decoder|ALT_INV_Equal1~1_combout\ $end
$upscope $end
$upscope $end
$enddefinitions $end
#0
$dumpvars
0!
0O
1P
xQ
1R
1S
1T
1U
1V
1W
0X
0(!
0)!
0*!
0+!
0,!
1-!
1.!
1/!
00!
11!
12!
13!
04!
05!
16!
17!
08!
09!
0:!
0;!
0<!
0=!
0>!
0?!
0@!
0A!
0B!
0C!
0D!
0E!
0F!
0G!
1H!
1I!
1J!
1K!
0L!
1M!
1N!
0O!
0P!
0Q!
0R!
0S!
0T!
0U!
0V!
0W!
0X!
0Y!
1Z!
0[!
0\!
0]!
1^!
0_!
0`!
0a!
0b!
0c!
0d!
0e!
1f!
0g!
0h!
0i!
0j!
0k!
0l!
0m!
0n!
0o!
0p!
0q!
0r!
0s!
0t!
0u!
0v!
0w!
0x!
1y!
0z!
0{!
0|!
1}!
0~!
0!"
0""
0#"
0$"
0%"
0&"
1'"
0("
0)"
0*"
1+"
0,"
0-"
0."
0/"
00"
01"
02"
03"
04"
05"
06"
17"
08"
09"
0:"
0;"
1<"
1="
1>"
0?"
0@"
0A"
0B"
0C"
0D"
0E"
0F"
0G"
1H"
0I"
0J"
0K"
1V"
1Y"
0Z"
1["
1E
0K
0L
0M
0N
0Y
0Z
0[
0\
1]
0^
0_
0`
0a
0b
1c
1d
1e
0f
1g
1h
1i
0j
0k
0l
1m
1n
0o
0p
0q
0r
0s
0t
0u
0v
0w
1x
0y
0z
0{
0|
0}
0~
0!!
1"!
1#!
0$!
1%!
1&!
1'!
0L"
0M"
0N"
0O"
0P"
0Q"
0R"
0S"
0T"
0U"
1W"
1X"
1"
1#
1$
0%
1&
1'
1(
0)
0*
0+
1,
1-
0.
0/
00
01
02
03
04
05
06
17
08
09
0:
0;
0<
0=
0>
1?
1@
0A
1B
1C
1D
0F
0G
0H
0I
0J
$end
#10000
1!
1X
1P!
0V"
1z!
1#"
1%"
1&"
1*"
1-"
0+"
#20000
0!
1N
0X
1\
1R!
0P!
1V"
1S!
#30000
1!
1X
1P!
0V"
1S"
1Q"
0X"
1V!
1Y!
1\!
1e!
1o!
1{!
1)"
07"
0<"
0="
0f!
1]!
0/!
0.!
10!
0g
0h
1f
0&
0'
1%
#40000
0!
0X
0P!
1V"
#50000
1!
0E
1X
0]
0^!
1P!
0V"
1_!
#60000
0!
0X
0P!
1V"
#70000
1!
1X
1P!
0V"
1`!
1d!
1|!
1~!
1f!
1g!
0>"
1!"
0&"
1+"
1,"
1""
1?"
1i!
1x!
1L!
1O!
0y!
0,"
1$!
1!!
1A
1>
#80000
0!
0X
0P!
1V"
1O"
0!"
0#"
1B"
1E"
1F"
1J"
1K"
0Y"
0'"
0""
1("
1D!
1G!
1?!
1>!
1;!
0H!
1|
1y
1s
1t
1w
0x
1;
18
16
13
12
07
