1_ano/LSD/aula03/parte_1/simulation/qsim/AdderDemo.msim.vcd
$comment
	File created using the following command:
		vcd file AdderDemo.msim.vcd -direction
$end
$date
	Tue Mar 29 14:17:54 2022
$end
$version
	ModelSim Version 2020.1
$end
$timescale
	1ps
$end

$scope module adder4_vhd_vec_tst $end
$var wire 1 ! a [3] $end
$var wire 1 " a [2] $end
$var wire 1 # a [1] $end
$var wire 1 $ a [0] $end
$var wire 1 % b [3] $end
$var wire 1 & b [2] $end
$var wire 1 ' b [1] $end
$var wire 1 ( b [0] $end
$var wire 1 ) cin $end
$var wire 1 * cout $end
$var wire 1 + s [3] $end
$var wire 1 , s [2] $end
$var wire 1 - s [1] $end
$var wire 1 . s [0] $end

$scope module i1 $end
$var wire 1 / gnd $end
$var wire 1 0 vcc $end
$var wire 1 1 unknown $end
$var wire 1 2 devoe $end
$var wire 1 3 devclrn $end
$var wire 1 4 devpor $end
$var wire 1 5 ww_devoe $end
$var wire 1 6 ww_devclrn $end
$var wire 1 7 ww_devpor $end
$var wire 1 8 ww_a [3] $end
$var wire 1 9 ww_a [2] $end
$var wire 1 : ww_a [1] $end
$var wire 1 ; ww_a [0] $end
$var wire 1 < ww_b [3] $end
$var wire 1 = ww_b [2] $end
$var wire 1 > ww_b [1] $end
$var wire 1 ? ww_b [0] $end
$var wire 1 @ ww_cin $end
$var wire 1 A ww_s [3] $end
$var wire 1 B ww_s [2] $end
$var wire 1 C ww_s [1] $end
$var wire 1 D ww_s [0] $end
$var wire 1 E ww_cout $end
$var wire 1 F \s[0]~output_o\ $end
$var wire 1 G \s[1]~output_o\ $end
$var wire 1 H \s[2]~output_o\ $end
$var wire 1 I \s[3]~output_o\ $end
$var wire 1 J \cout~output_o\ $end
$var wire 1 K \a[0]~input_o\ $end
$var wire 1 L \b[0]~input_o\ $end
$var wire 1 M \cin~input_o\ $end
$var wire 1 N \bit0|s~0_combout\ $end
$var wire 1 O \b[1]~input_o\ $end
$var wire 1 P \a[1]~input_o\ $end
$var wire 1 Q \bit0|cout~0_combout\ $end
$var wire 1 R \bit1|s~combout\ $end
$var wire 1 S \bit1|cout~0_combout\ $end
$var wire 1 T \a[2]~input_o\ $end
$var wire 1 U \b[2]~input_o\ $end
$var wire 1 V \bit2|s~combout\ $end
$var wire 1 W \a[3]~input_o\ $end
$var wire 1 X \b[3]~input_o\ $end
$var wire 1 Y \bit3|s~0_combout\ $end
$var wire 1 Z \bit3|s~combout\ $end
$upscope $end
$upscope $end
$enddefinitions $end
#0
$dumpvars
0)
0*
0/
10
x1
12
13
14
15
16
17
0@
0E
0F
1G
1H
1I
0J
1K
1L
0M
0N
0O
0P
1Q
1R
0S
1T
0U
1V
1W
0X
1Y
1Z
1!
1"
0#
1$
0%
0&
0'
1(
18
19
0:
1;
0<
0=
0>
1?
1A
1B
1C
0D
1+
1,
1-
0.
$end
#20000
1)
1@
1M
1N
1F
1D
1.
#40000
0)
0!
0"
1#
0(
0@
1:
09
08
0?
0L
0W
0T
1P
0M
0R
1S
0V
0Y
0Q
1R
0S
1V
0Z
0V
0H
0G
0B
0C
0I
1H
1G
0-
0,
0A
1B
1C
0H
1-
1,
0+
0B
0,
#60000
1)
1@
1M
0N
1Q
0R
1S
1V
0F
0D
0G
0.
0C
1H
0-
1B
1,
#80000
0)
1"
0$
1'
0@
0;
19
1>
1O
1T
0K
0M
0Q
0V
1Z
1R
0R
1G
1I
0H
1C
1A
0B
0G
1-
0,
1+
0C
0-
#100000
1)
1@
1M
1N
1F
1D
1.
#120000
0)
0'
1!
1%
0@
0>
1<
18
1W
1X
0O
0M
0N
1R
0S
1V
0Z
1G
0F
1C
0D
0I
1H
0.
1-
0A
1B
1,
0+
#140000
1)
1@
1M
1N
1F
1D
1.
#160000
0)
0!
0"
1$
1(
1&
0@
1;
09
08
1?
1=
1U
1L
0W
0T
1K
0M
1Y
0N
1Q
0R
1S
1Z
0V
0Z
0F
0D
1I
0G
0.
1A
0C
0I
0H
0-
1+
0A
0B
0,
0+
#180000
1)
1@
1M
1N
1F
1D
1.
#200000
0)
1"
0(
0&
1'
0@
19
0?
1>
0=
0U
1O
0L
1T
0M
0Q
1R
0R
1G
1C
0G
1-
0C
0-
#220000
1)
1@
1M
0N
1Q
1R
0F
0D
1G
0.
1C
1-
#240000
0)
0'
0@
0>
0O
0M
1N
0Q
0R
1R
0S
1V
1Z
0G
1F
0C
1D
1G
1.
0-
1C
1I
1H
1-
1A
1B
1,
1+
#260000
1)
1@
1M
0N
1Q
0R
1S
0V
0Z
0F
0D
0G
0.
0C
0I
0H
0-
0A
0B
0,
0+
#280000
0)
1'
1&
0%
0@
1>
1=
0<
0X
1U
1O
0M
1N
0Q
1R
1V
0Y
1Z
0R
1H
1G
1F
1B
1C
1D
0G
1I
1.
1-
1,
0C
1A
0-
1+
#300000
1)
1@
1M
0N
1Q
1R
0F
0D
1G
0.
1C
1-
#320000
0)
0'
0&
1%
0"
1(
1!
0@
1?
0>
0=
1<
09
18
1W
0T
1X
0U
0O
1L
0M
0R
0Z
0I
0G
0A
0C
0-
0+
#340000
1)
1@
1M
1N
1F
1D
1.
#360000
0)
1'
1&
0%
0(
0#
0@
0?
1>
1=
0<
0:
0P
0X
1U
1O
0L
0M
0Q
0V
1Z
1Y
0Z
1R
0S
1V
1Z
1I
0H
1A
0B
1G
0I
0,
1+
1C
0A
1I
1H
1-
0+
1A
1B
1,
1+
#380000
1)
1@
1M
0N
1Q
0R
1S
0V
0Z
0F
0D
0G
0.
0C
0I
0H
0-
0A
0B
0,
0+
#400000
0)
1(
1#
1"
0@
1?
1:
19
1T
1P
1L
0M
1R
1V
1H
1G
1B
1C
1-
1,
#420000
1)
1@
1M
1N
1F
1D
1.
#440000
0)
0"
0'
1%
0!
0$
0@
0;
09
08
0>
1<
1X
0O
0W
0T
0K
0M
0Q
0V
0R
1R
0S
1V
1Z
0G
0H
0C
0B
1G
0-
0,
1C
1I
1H
1-
1A
1B
1,
1+
#460000
1)
1@
1M
0N
1Q
0R
1S
0V
0Z
0F
0D
0G
0.
0C
0I
0H
0-
0A
0B
0,
0+
#480000
0)
1"
1!
1$
0(
0#
0@
1;
0:
19
18
0?
0L
1W
1T
0P
1K
0M
1R
0S
1V
0Y
1N
0Q
0R
0V
1Z
1F
1H
1G
1D
1B
1C
1I
0H
0G
1.
1-
1,
1A
0B
0C
0-
0,
1+
#500000
1)
1@
1M
0N
1Q
1R
0F
0D
1G
0.
1C
1-
#520000
0)
0!
1#
1'
0%
0&
0@
1:
08
1>
0=
0<
0X
0U
1O
0W
1P
0M
1N
0Q
1S
1V
0Z
0V
1Z
0R
0I
1H
1F
0A
1B
1D
0G
1I
0H
1.
1,
0+
0C
1A
0B
0-
0,
1+
#540000
1)
1@
1M
0N
1Q
1R
0F
0D
1G
0.
1C
1-
#560000
0)
1!
0'
1&
0"
1(
0@
09
18
1?
0>
1=
1U
0O
1L
1W
0T
0M
1Y
0R
0Z
0G
0C
0I
0-
0A
0+
#580000
1)
1@
1M
1N
1F
1D
1.
#600000
0)
1'
1"
1%
0@
1>
1<
19
1T
1X
1O
0M
0N
1R
0Y
1V
1Z
1H
1G
0F
1B
1C
0D
1I
0.
1-
1,
1A
1+
#620000
1)
1@
1M
1N
1F
1D
1.
#640000
0)
0"
0%
0&
0(
0#
0@
0:
09
0?
0=
0<
0X
0U
0L
0T
0P
0M
0R
0Q
0Z
1Y
1Z
1R
0S
0V
0I
0G
0A
0C
1G
1I
0-
0+
1C
1A
0H
1-
1+
0B
0,
#660000
1)
1@
1M
0N
1Q
0R
1S
1V
0F
0D
0G
0.
0C
1H
0-
1B
1,
#680000
0)
1"
1%
1(
0'
0!
0$
0@
0;
19
08
1?
0>
1<
1X
0O
1L
0W
1T
0K
0M
0V
0Z
1N
0Q
1R
0S
1V
1Z
0R
1G
1F
0I
0H
1C
1D
0A
0B
0G
1I
1H
1.
1-
0,
0+
0C
1A
1B
0-
1,
1+
#700000
1)
1@
1M
0N
1Q
1R
0F
0D
1G
0.
1C
1-
#720000
0)
0"
1$
1&
1#
0@
1;
1:
09
1=
1U
0T
1P
1K
0M
0R
1S
0V
0Z
0G
0C
0I
0H
0-
0A
0B
0,
0+
#740000
1)
1@
1M
1N
1F
1D
1.
#760000
0)
0&
0#
0(
1!
0@
0?
0=
0:
18
1W
0P
0U
0L
0M
0Q
1V
1Z
1R
0S
0Y
0V
0Z
0R
1G
1I
1H
1C
1A
1B
0G
0I
0H
1-
1,
1+
0C
0A
0B
0-
0,
0+
#780000
1)
1@
1M
0N
1Q
1R
0F
0D
1G
0.
1C
1-
#800000
0)
1(
0!
1"
0$
0@
1?
0;
19
08
0W
1T
0K
1L
0M
1N
0Q
1V
1Y
1Z
0R
1H
1F
1B
1D
0G
1I
1.
1,
0C
1A
0-
1+
#820000
1)
1@
1M
0N
1Q
1R
0F
0D
1G
0.
1C
1-
#840000
0)
1!
0"
1$
1#
0@
1;
1:
09
18
1W
0T
1P
1K
0M
0R
1S
0V
0Y
1V
0Z
0H
0G
0B
0C
0I
1H
0-
0,
0A
1B
1,
0+
#860000
1)
1@
1M
1N
1F
1D
1.
#880000
0)
0!
1"
0#
0(
1&
0%
0@
0:
19
08
0?
1=
0<
0X
1U
0L
0W
1T
0P
0M
1R
0S
0Q
1Z
0R
0V
1I
1G
1A
1C
0H
0G
1-
1+
0B
0C
0-
0,
#900000
1)
1@
1M
0N
1Q
1R
0F
0D
1G
0.
1C
1-
#920000
0)
1(
0&
0@
1?
0=
0U
1L
0M
1V
0Z
0I
1H
0A
1B
1,
0+
#940000
1)
1@
1M
1N
1F
1D
1.
#960000
0)
1&
0"
1%
0$
1'
0@
1>
1=
1<
0;
09
0T
0K
1X
1U
1O
0M
0R
1S
1Y
0Q
1R
0S
0V
1V
1Z
0G
0C
0H
1G
0-
0B
1C
1I
1H
1-
0,
1A
1B
1,
1+
#980000
1)
1@
1M
0N
1Q
0R
1S
0V
0Z
0F
0D
0G
0.
0C
0I
0H
0-
0A
0B
0,
0+
