1_ano/ISD/testes_simulacao/simulation/qsim/TesteSim1.msim.vcd
$comment
	File created using the following command:
		vcd file TesteSim1.msim.vcd -direction
$end
$date
	Tue Dec 21 12:53:23 2021
$end
$version
	ModelSim Version 2020.1
$end
$timescale
	1ps
$end

$scope module TesteSim1_vlg_vec_tst $end
$var reg 3 ! S [2:0] $end
$var reg 8 " X [7:0] $end
$var wire 1 # Y $end

$scope module i1 $end
$var wire 1 $ gnd $end
$var wire 1 % vcc $end
$var wire 1 & unknown $end
$var tri1 1 ' devclrn $end
$var tri1 1 ( devpor $end
$var tri1 1 ) devoe $end
$var wire 1 * Y~output_o $end
$var wire 1 + X[5]~input_o $end
$var wire 1 , S[0]~input_o $end
$var wire 1 - X[6]~input_o $end
$var wire 1 . S[1]~input_o $end
$var wire 1 / X[4]~input_o $end
$var wire 1 0 inst|inst2|22~0_combout $end
$var wire 1 1 X[7]~input_o $end
$var wire 1 2 inst|inst2|22~1_combout $end
$var wire 1 3 X[2]~input_o $end
$var wire 1 4 X[1]~input_o $end
$var wire 1 5 X[0]~input_o $end
$var wire 1 6 inst|inst2|22~2_combout $end
$var wire 1 7 X[3]~input_o $end
$var wire 1 8 inst|inst2|22~3_combout $end
$var wire 1 9 S[2]~input_o $end
$var wire 1 : inst|inst2|22~4_combout $end
$upscope $end
$upscope $end
$enddefinitions $end
#0
$dumpvars
b0 !
b10101110 "
0#
0$
1%
x&
1'
1(
1)
0*
1+
0,
0-
0.
0/
00
11
02
13
14
05
06
17
08
09
0:
$end
#40000
b1 !
1,
16
12
18
1:
1*
1#
#80000
b11 !
b10 !
0,
1.
06
02
#120000
b11 !
1,
16
12
10
#170000
b111 !
b101 !
b100 !
0,
0.
19
06
00
08
02
0:
0*
0#
#210000
b101 !
1,
16
12
18
1:
1*
1#
#240000
b111 !
b110 !
0,
1.
06
02
0:
0*
0#
#280000
b111 !
1,
16
12
10
1:
1*
1#
#310000
b101110 "
b1110 "
b110 "
b10 "
b0 "
04
03
07
0+
01
08
02
0:
0*
0#
#340000
b11 !
b1 !
b0 !
0,
0.
09
06
12
00
18
08
02
1:
1*
1#
0:
0*
0#
