ISD/P8/Parte_2/simulation/qsim/CmpDemo.msim.vcd
$comment
	File created using the following command:
		vcd file CmpDemo.msim.vcd -direction
$end
$date
	Tue Dec 14 12:54:54 2021
$end
$version
	ModelSim Version 2020.1
$end
$timescale
	1ps
$end

$scope module CmpDemo_vlg_vec_tst $end
$var reg 4 ! a [3:0] $end
$var reg 4 " b [3:0] $end
$var wire 1 # Xo $end
$var wire 1 $ Yo $end
$var wire 1 % Zo $end

$scope module i1 $end
$var wire 1 & gnd $end
$var wire 1 ' vcc $end
$var wire 1 ( unknown $end
$var tri1 1 ) devclrn $end
$var tri1 1 * devpor $end
$var tri1 1 + devoe $end
$var wire 1 , Xo~output_o $end
$var wire 1 - Yo~output_o $end
$var wire 1 . Zo~output_o $end
$var wire 1 / b[1]~input_o $end
$var wire 1 0 a[3]~input_o $end
$var wire 1 1 a[2]~input_o $end
$var wire 1 2 b[0]~input_o $end
$var wire 1 3 inst|inst4|inst4~0_combout $end
$var wire 1 4 a[1]~input_o $end
$var wire 1 5 b[3]~input_o $end
$var wire 1 6 b[2]~input_o $end
$var wire 1 7 a[0]~input_o $end
$var wire 1 8 inst|inst4|inst4~1_combout $end
$var wire 1 9 inst|inst4|inst4~2_combout $end
$var wire 1 : inst|inst4|inst4~3_combout $end
$var wire 1 ; inst|inst4|inst1~0_combout $end
$var wire 1 < inst|inst4|inst1~combout $end
$var wire 1 = inst|inst4|inst5~0_combout $end
$var wire 1 > inst|inst4|inst5~1_combout $end
$var wire 1 ? inst|inst4|inst5~2_combout $end
$upscope $end
$upscope $end
$enddefinitions $end
#0
$dumpvars
b0 !
b1 "
0#
0$
1%
0&
1'
x(
1)
1*
1+
0,
0-
1.
0/
00
01
12
03
04
05
06
07
08
09
0:
0;
1<
1=
0>
1?
$end
#40000
b1000 !
b1100 !
11
10
#90000
b1001 "
b1011 "
1/
15
0=
19
1;
18
0?
1:
1,
0.
0%
1#
#140000
b1110 !
b1111 !
b1111 "
16
17
14
0;
08
0<
0:
0,
1-
1$
0#
#230000
b111 !
b11 !
b111 "
05
01
00
1>
1;
1<
1?
1.
0-
0$
1%
#340000
b101 "
b1 !
b0 !
b1 "
b1000 !
b1001 "
07
04
10
0/
06
15
0>
18
1=
09
#420000
b1100 !
b1011 "
b1111 "
1/
16
11
0=
19
0;
08
0<
0?
0.
1-
1$
0%
#500000
b1101 !
b101 !
b111 "
b101 "
0/
05
17
00
1=
09
1>
1;
1<
1?
1.
0-
0$
1%
#600000
b100 "
b1 !
b0 "
b0 !
07
01
02
06
0>
0;
0=
19
0<
0?
0.
1-
1$
0%
